HW1/DMA_RESULT.vcd
$date
     Mar 26, 2021       01:42:51
$end

$version
 SystemC 2.3.3-Accellera --- Mar  5 2021 22:30:26
$end

$timescale
     1 ps
$end

$scope module SystemC $end
$var wire    1  aaaaa  reset       $end
$var wire    1  aaaab  interrupt       $end
$var wire   32  aaaac  addr_s [31:0]  $end
$var wire   32  aaaad  wdata_s [31:0]  $end
$var wire   32  aaaae  rdata_s [31:0]  $end
$var wire    1  aaaaf  rw_s       $end
$var wire   32  aaaag  wdata_m [31:0]  $end
$var wire   32  aaaah  rdata_m [31:0]  $end
$var wire   32  aaaai  addr_m [31:0]  $end
$var wire    1  aaaaj  rw_m       $end
$var wire   32  aaaak  SOURCE [31:0]  $end
$var wire   32  aaaal  TARGET [31:0]  $end
$var wire   32  aaaam  BASE [31:0]  $end
$var wire   32  aaaan  SIZE [31:0]  $end
$var wire    1  aaaao  START       $end
$var wire   32  aaaap  DATA_reg [31:0]  $end
$upscope $end
$enddefinitions  $end

$comment
All initial values are dumped below at time 0 sec = 0 timescale units.
$end

$dumpvars
0aaaaa
0aaaab
b0 aaaac
b0 aaaad
b0 aaaae
0aaaaf
b0 aaaag
b0 aaaah
b0 aaaai
0aaaaj
b0 aaaak
b0 aaaal
b10000000000000 aaaam
b0 aaaan
0aaaao
b0 aaaap
$end

#20000
1aaaaa

#60000
0aaaaa
b10000000000000 aaaac
b100000000000000000 aaaad
1aaaaf
b100000000000000000 aaaak

#80000
b10000000000100 aaaac
b110000000000000000 aaaad
b110000000000000000 aaaal

#100000
b10000000001000 aaaac
b1000 aaaad
b1000 aaaan

#120000
b10000000001100 aaaac
b1 aaaad
1aaaao

#140000
b0 aaaac
b0 aaaad
0aaaaf
b100000001000010010000000100010 aaaah
b100000000000000000 aaaai
b100000000000000100 aaaak
b100 aaaan
b100000001000010010000000100010 aaaap

#160000
b100000001000010010000000100010 aaaag
b110000000000000000 aaaai
1aaaaj
b110000000000000100 aaaal

#180000
b100000001000100010000000100011 aaaah
b100000000000000100 aaaai
0aaaaj
b100000000000001000 aaaak
b0 aaaan
b100000001000100010000000100011 aaaap

#200000
b100000001000100010000000100011 aaaag
b110000000000000100 aaaai
1aaaaj
b110000000000001000 aaaal

#220000
1aaaab
b0 aaaag
b0 aaaai
0aaaaj

#420000
0aaaab
b10000000001100 aaaac
0aaaao

#640000
b10000000000000 aaaac
b10100000000000000000 aaaad
b10100000000000000000 aaaak

#660000
b10000000000100 aaaac
b11110000000000000000 aaaad
b11110000000000000000 aaaal

#680000
b10000000001000 aaaac
b111 aaaad
b111 aaaan

#700000
b10000000001100 aaaac
b1 aaaad
1aaaao

#720000
b0 aaaac
b0 aaaad
b10101011110011011110111110101011 aaaah
b10100000000000000000 aaaai
b10100000000000000100 aaaak
b11 aaaan
b10101011110011011110111110101011 aaaap

#740000
b10101011110011011110111110101011 aaaag
b11110000000000000000 aaaai
1aaaaj
b11110000000000000100 aaaal

#760000
b10010001101000101011001111000 aaaah
b10100000000000000100 aaaai
0aaaaj
b10100000000000001000 aaaak
b0 aaaan
b1101000101011001111000 aaaap

#780000
b1101000101011001111000 aaaag
b11110000000000000100 aaaai
1aaaaj
b11110000000000001000 aaaal

#800000
1aaaaa
b0 aaaag
b0 aaaai
0aaaaj
b0 aaaak
b0 aaaal
0aaaao
b0 aaaap

