HW1/DMA_RESULT.vcd
$date
     Mar 19, 2021       15:12:16
$end

$version
 SystemC 2.3.3-Accellera --- Mar  5 2021 22:30:26
$end

$timescale
     1 ps
$end

$scope module SystemC $end
$var wire    1  aaaaa  reset       $end
$var wire    1  aaaab  interrupt       $end
$var wire   32  aaaac  addr_s [31:0]  $end
$var wire   32  aaaad  wdata_s [31:0]  $end
$var wire   32  aaaae  rdata_s [31:0]  $end
$var wire    1  aaaaf  rw_s       $end
$var wire   32  aaaag  wdata_m [31:0]  $end
$var wire   32  aaaah  rdata_m [31:0]  $end
$var wire   32  aaaai  addr_m [31:0]  $end
$var wire    1  aaaaj  rw_m       $end
$var wire   32  aaaak  SOURCE [31:0]  $end
$var wire   32  aaaal  TARGET [31:0]  $end
$var wire   32  aaaam  BASE [31:0]  $end
$var wire   32  aaaan  SIZE [31:0]  $end
$var wire    1  aaaao  START       $end
$var wire   32  aaaap  DATA_reg [31:0]  $end
$upscope $end
$enddefinitions  $end

$comment
All initial values are dumped below at time 0 sec = 0 timescale units.
$end

$dumpvars
0aaaaa
0aaaab
b0 aaaac
b0 aaaad
b0 aaaae
0aaaaf
b0 aaaag
b0 aaaah
b0 aaaai
0aaaaj
b0 aaaak
b0 aaaal
b10000000100001 aaaam
b0 aaaan
0aaaao
b0 aaaap
$end

#20000
1aaaaa

#60000
0aaaaa
b10000000100001 aaaac
b100000000000000000 aaaad
b100000000000000000 aaaak

#80000
b10000000100101 aaaac
b110000000000000000 aaaad
b110000000000000000 aaaal

#100000
b10000000101001 aaaac
b100 aaaad
b100 aaaan

#120000
b10000000101101 aaaac
b1 aaaad
1aaaao

#140000
b0 aaaac
b0 aaaad
b10000000100001 aaaah
b100000000000000000 aaaai
b10000000100001 aaaap

#160000
b10000000100001 aaaag
b110000000000000000 aaaai
1aaaaj

#180000
b10000000100010 aaaah
b100000000000000100 aaaai
0aaaaj
b10000000100010 aaaap

#200000
b10000000100010 aaaag
b110000000000000100 aaaai
1aaaaj

#220000
b10000000100011 aaaah
b100000000000001000 aaaai
0aaaaj
b10000000100011 aaaap

#240000
b10000000100011 aaaag
b110000000000001000 aaaai
1aaaaj

#260000
b10000000100100 aaaah
b100000000000001100 aaaai
0aaaaj
b10000000100100 aaaap

#280000
b10000000100100 aaaag
b110000000000001100 aaaai
1aaaaj

#300000
1aaaab
b0 aaaag
b0 aaaai
0aaaaj

#500000
0aaaab
b10000000101101 aaaac
0aaaao

#720000
b1 aaaad
1aaaao

#740000
b100000000000000000 aaaai

#760000
b10000000100100 aaaag
b110000000000000000 aaaai
1aaaaj

#780000
b100000000000000100 aaaai
0aaaaj

#800000
b110000000000000100 aaaai
1aaaaj

#820000
b100000000000001000 aaaai
0aaaaj

#840000
b110000000000001000 aaaai
1aaaaj

#860000
b100000000000001100 aaaai
0aaaaj

#880000
b110000000000001100 aaaai
1aaaaj

#900000
1aaaab
b0 aaaag
b0 aaaai
0aaaaj

#920000
1aaaaa
0aaaab
b0 aaaak
b0 aaaal
b0 aaaan
0aaaao

